451133518
451163899
451169869
451166992
451179781
451182334
451162240
451157813
392881977
451201347
451175304
451145464
451153899
451161294
451158436
451179563
451091615
451179150
451191707
451172443
451159723
348371666
451165178
451178088
451206452
451183783
451174054
451175895
451173344
451159743
