1082942421
1087143522
1295077061
1112372436
1095452067
1099436647
1092297353
1101051187
1098528743
1104285723
1099549787
1091250558
1108592830
1102546073
1098032151
1101371853
1085155137
977760549
1091345940
1090896142
1107294986
1092615084
1083445940
1097993872
1083311809
1085422396
1091987512
1093569471
1116447577
1107130581
