1804323
1983505
1829840
1826937
1835725
1793867
1810998
1836785
1835074
1886426
1832231
1821345
1814362
1825766
1884314
1818786
1873446
1857712
1901410
1949062
1842560
1845594
1908896
1839385
1868724
1818436
1834756
1855946
1863380
1796578
