202110333
196606675
183125535
206800293
192114779
191988071
206569128
210517234
198614247
201407133
205293067
205181891
194188962
205487442
199598603
205050215
207060801
204559359
211157614
203012446
190848710
201280957
190881951
208083077
208865312
194294162
186785741
189235251
200907787
205596472
