14.639
13.415
14.428
14.563
14.504
14.868
15.052
14.253
14.120
15.090
15.352
14.978
14.312
14.953
14.503
14.492
14.617
14.221
14.464
14.218
15.085
13.576
14.562
15.626
14.644
14.701
14.480
14.521
14.074
14.543
