1520694033
1560546180
1544900924
1544384162
1549636734
1534463508
1510544210
1539084805
1544688516
1561830498
1526743006
1544436827
1375773696
1525749955
1549473658
1581276872
1529813680
1575312108
1518187091
1532451516
1547150877
1534782648
1569943768
1543364370
1517689058
1527435483
1529922753
1515877779
1581596383
1562246726
