488037888
488718483
488243928
488528139
488464889
488009343
488151883
488635066
488552525
488659465
488647700
488575938
488837945
488437212
488567774
488971246
488533214
488532809
488384358
488730993
488894101
488429456
488931639
488492108
488062143
488467012
488263433
488194224
488722667
488689491
