# started on Tue Dec 17 21:10:32 2013


 Performance counter stats for 'java -jar 8.jar 500':

    17,804,423,882 cycles:u                  #    0.000 GHz                    
     4,561,613,355 instructions:u            #    0.26  insns per cycle        

       6.927532607 seconds time elapsed

# started on Tue Dec 17 21:10:46 2013


 Performance counter stats for 'java -jar 8.jar 500':

    18,418,614,057 cycles:u                  #    0.000 GHz                    
     4,585,122,143 instructions:u            #    0.25  insns per cycle        

       7.280880042 seconds time elapsed

# started on Tue Dec 17 21:11:01 2013


 Performance counter stats for 'java -jar 8.jar 500':

    18,525,477,181 cycles:u                  #    0.000 GHz                    
     4,593,919,183 instructions:u            #    0.25  insns per cycle        

       7.359700514 seconds time elapsed

# started on Tue Dec 17 21:11:15 2013


 Performance counter stats for 'java -jar 8.jar 500':

    18,275,499,250 cycles:u                  #    0.000 GHz                    
     4,585,750,619 instructions:u            #    0.25  insns per cycle        

       7.187781435 seconds time elapsed

# started on Tue Dec 17 21:11:30 2013


 Performance counter stats for 'java -jar 8.jar 500':

    18,298,899,662 cycles:u                  #    0.000 GHz                     [99.93%]
     4,588,175,474 instructions:u            #    0.25  insns per cycle        

       7.202323976 seconds time elapsed

