454553723
454534940
454528241
454581866
454554497
454573664
454562881
454587423
454546938
454552074
454546137
454566658
454531298
454559544
454542555
454554068
454518724
454571670
454519135
454556715
454536843
454529564
454564022
454590845
454521474
454553749
454587240
454559522
454562760
454585266
