1914253
1919214
1993519
1905738
1890447
2011933
1944233
1914067
1942738
1942633
1716781
1995934
1918584
1893383
1949018
1933805
1958094
1931360
1960426
1976569
1917954
1911161
1913218
1901160
1972928
1913337
2039283
1930457
1921850
1931743
