14665414
14405283
14679692
14621121
14368679
14596719
14670318
14714861
14683934
14570297
14579458
14642045
14684868
14430160
16066802
14595115
17807368
14381209
14659497
14631532
14470851
14480134
14796766
14610777
14563120
14426747
13611318
14676734
14754982
14780469
