1261064
1223992
1236527
1228205
1257900
1236044
1259080
1234054
1250467
1225206
1233392
1281908
1231819
1240488
1235426
1251582
1256406
1255417
1234901
1248222
1255747
1254729
1247232
1251732
1240769
1261711
1258203
1261858
1253974
1252125
