10094908
9757299
9761788
10204745
10070534
9937325
9903357
9759569
10100236
11136403
10175831
9996467
9920745
9761134
9995117
9826808
9849643
9945339
10164800
9911942
9742578
9856304
10088385
9980888
9867047
10167665
9961216
9913958
9818528
9985668
