15.623
15.816
15.777
15.839
16.304
15.169
15.618
15.278
16.303
16.037
16.053
16.301
16.267
16.086
15.410
15.823
16.164
16.343
15.753
15.682
14.773
14.280
14.688
15.677
14.773
15.559
15.721
16.221
16.098
15.722
