283837948
283736675
283650450
283826132
284244856
283717571
283605304
284037064
283702027
284049957
283998756
283720597
283982960
283826633
283828485
283962367
283420837
283850226
284176534
283783215
283851048
283976402
283958565
283742951
283728426
283411212
283800812
284010013
283541360
284053630
