1,geladeira,180,90,89,1200.00,4,branco
2,geladeira,180,90,89,1200.00,2,prata
3,aspirador,30,50,60,149.99,5,vermelho
4,ar condicionado, 50,100,40,2967.00,13,branco
5,TV LCD 42'', 80,110,15,2500.00,25,preto
6,Forno Eletrico com Microondas,39.2,52.7,0.48,1688.39,7,prata
7,Lavadora de roupas 1Kg,46,32,32.9,435.00,1,branco
8,Radio CD MP3,12.2,34.1,23.6,199.99,100,preto
