1322662305
1258200255
1312207039
1295379287
1323638383
1307001670
1308845139
1316910133
1317927089
1287200295
1304613873
1305530866
1314474592
1304974550
1317756674
1294686394
1294589630
1325068222
1323838884
1312213279
1323392349
1483317399
1310246397
1336687055
1323733548
1324326240
1286843184
1315642853
1306624941
1297828212
