13.808
13.917
13.857
13.629
13.801
13.719
13.871
13.780
13.628
13.627
14.143
13.811
13.785
13.846
13.587
13.749
13.043
13.749
13.714
13.630
13.678
13.865
13.706
13.783
13.969
13.911
14.829
13.685
14.004
13.899
