             id;   instructions;         cycles;   cache access;     cache miss;            cpi;     energy (J);      eps (J/s);  pe_energy (J); mem_energy (J);   mem_leak (J); mem_access (J)
          all/0;       3.23e+08;       1.10e+09;       1.24e+07;       1.85e+06;       3.41e+00;       2.09e+00;     3.1513e+00;       1.60e+00;       4.85e-01;       4.70e-01;       1.48e-02
          all/1;       2.84e+08;       9.00e+08;       1.01e+07;       1.54e+06;       3.17e+00;       1.71e+00;     3.1517e+00;       1.31e+00;       3.97e-01;       3.84e-01;       1.23e-02
          all/2;       3.99e+08;       1.32e+09;       1.47e+07;       2.03e+06;       3.31e+00;       2.50e+00;     3.1494e+00;       1.92e+00;       5.80e-01;       5.64e-01;       1.62e-02
          all/3;       2.83e+08;       9.00e+08;       9.99e+06;       1.53e+06;       3.18e+00;       1.71e+00;     3.1516e+00;       1.31e+00;       3.97e-01;       3.84e-01;       1.22e-02
          all/4;       4.93e+08;       1.54e+09;       1.69e+07;       2.34e+06;       3.12e+00;       2.92e+00;     3.1492e+00;       2.25e+00;       6.76e-01;       6.58e-01;       1.87e-02
          all/5;       4.89e+08;       1.54e+09;       1.67e+07;       2.28e+06;       3.15e+00;       2.92e+00;     3.1487e+00;       2.25e+00;       6.76e-01;       6.58e-01;       1.82e-02
         user/0;       2.99e+08;       9.08e+08;       1.03e+07;       1.55e+06;       3.04e+00;       1.72e+00;     3.1517e+00;       1.32e+00;       4.00e-01;       3.88e-01;       1.24e-02
         user/1;       2.53e+08;       7.29e+08;       8.09e+06;       1.25e+06;       2.88e+00;       1.38e+00;     3.1518e+00;       1.06e+00;       3.21e-01;       3.11e-01;       1.00e-02
         user/2;       3.64e+08;       1.10e+09;       1.21e+07;       1.65e+06;       3.02e+00;       2.09e+00;     3.1489e+00;       1.60e+00;       4.83e-01;       4.70e-01;       1.32e-02
         user/3;       2.54e+08;       7.31e+08;       8.24e+06;       1.25e+06;       2.88e+00;       1.39e+00;     3.1517e+00;       1.07e+00;       3.22e-01;       3.12e-01;       1.00e-02
         user/4;       4.55e+08;       1.32e+09;       1.43e+07;       1.93e+06;       2.90e+00;       2.50e+00;     3.1484e+00;       1.92e+00;       5.79e-01;       5.64e-01;       1.54e-02
         user/5;       4.46e+08;       1.33e+09;       1.44e+07;       1.92e+06;       2.98e+00;       2.52e+00;     3.1482e+00;       1.94e+00;       5.83e-01;       5.68e-01;       1.54e-02
       kernel/0;       3.42e+07;       2.00e+08;       2.23e+06;       3.24e+05;       5.85e+00;       3.80e-01;     3.1505e+00;       2.92e-01;       8.80e-02;       8.54e-02;       2.59e-03
       kernel/1;       3.13e+07;       1.73e+08;       1.94e+06;       2.85e+05;       5.53e+00;       3.28e-01;     3.1509e+00;       2.52e-01;       7.62e-02;       7.39e-02;       2.28e-03
       kernel/2;       3.48e+07;       2.06e+08;       2.35e+06;       3.46e+05;       5.92e+00;       3.91e-01;     3.1513e+00;       3.00e-01;       9.08e-02;       8.80e-02;       2.77e-03
       kernel/3;       3.18e+07;       1.71e+08;       1.91e+06;       2.83e+05;       5.38e+00;       3.25e-01;     3.1510e+00;       2.49e-01;       7.53e-02;       7.30e-02;       2.26e-03
       kernel/4;       3.88e+07;       2.30e+08;       2.49e+06;       3.91e+05;       5.93e+00;       4.37e-01;     3.1516e+00;       3.35e-01;       1.01e-01;       9.82e-02;       3.13e-03
       kernel/5;       3.74e+07;       2.24e+08;       2.40e+06;       3.77e+05;       5.99e+00;       4.25e-01;     3.1514e+00;       3.27e-01;       9.87e-02;       9.57e-02;       3.02e-03
