13.733
13.271
13.184
13.824
13.165
13.074
13.071
13.150
12.921
13.356
13.060
13.538
13.602
13.045
13.070
13.352
13.168
13.178
13.304
13.526
13.440
13.714
13.604
12.908
13.217
13.136
13.760
13.097
13.302
13.891
