digraph {
	u [label="Usuário",color="lavenderblush2",style="filled"];

	c [label="Código",color="green",style="filled"];
	m1 [label="Modelo do\nUsuário",color="green",style="filled"];
	m2 [label="Modelo\nExtraído",color="lightskyblue",style="filled"];
	exe [label="Executável",color="lightskyblue",style="filled"];

	und [shape=box, label="Understand",color="palegreen",style="filled"];
	sd [shape=box, label="SDMetrics",color="palegreen",style="filled"];
	as [shape=box, label="Astah",color="palegreen",style="filled"];
	g5 [shape=box, label="gem5",color="palegreen",style="filled"];
	comp [shape=box, label="Compilador",color="palegreen",style="filled"];

	mtc [label="Métrica de\nCódigo",color="green",style="filled"];
	mtb [label="Métrica de\nBaixo Nível",color="grey",style="filled"];
	mtm [label="Métrica de\nProjeto\nUsuário",color="green",style="filled"];
	mtm2 [label="Métrica de\nProjeto\nExtraído",color="green",style="filled"];

	u -> c;
	c -> comp -> exe -> g5 -> mtb;
	c -> und -> mtc;
	edge[style=dashed];
	c -> as -> m2 -> sd -> mtm2;
	edge[style=filled];
	u -> as -> m1 -> sd -> mtm;
}
