1,09/11/2013,0,0,0.0,0.0
1,09/11/2013,0,12,0.0,35604.0
1,09/11/2013,0,3,0.0,3366.98
1,09/11/2013,0,3,0.0,3600.0
1,09/11/2013,0,1,0.0,1200.0
1,09/11/2013,0,2,0.0,2400.0
1,10/11/2013,0,0,0.0,0.0
9,10/11/2013,0,0,0.0,0.0
9,10/11/2013,2,0,109.96,0.0
1,10/11/2013,1,2,10.0,20.0
9,10/11/2013,0,0,0.0,0.0
9,10/11/2013,5,0,499.5,0.0
1,10/11/2013,1,0,89.9,0.0
1,10/11/2013,1,0,89.9,0.0
1,10/11/2013,1,0,89.9,0.0
1,10/11/2013,1,3,89.9,3600.0
9,10/11/2013,5,0,499.5,0.0
9,10/11/2013,0,0,0.0,0.0
1,10/11/2013,1,3,89.9,3600.0
1,10/11/2013,2,3,179.8,3600.0
1,10/11/2013,2,3,179.8,3600.0
1,10/11/2013,0,3,0.0,3600.0
9,10/11/2013,0,0,0.0,0.0
9,10/11/2013,0,0,0.0,0.0
1,10/11/2013,0,3,0.0,3600.0
1,10/11/2013,0,0,0.0,0.0
1,10/11/2013,0,0,0.0,0.0
1,29/11/2013,0,1,0.0,1200.0
1,29/11/2013,0,1,0.0,1200.0
1,02/12/2013,0,0,0.0,0.0
1,02/12/2013,0,0,0.0,0.0
1,02/12/2013,0,0,0.0,0.0
1,02/12/2013,0,0,0.0,0.0
1,02/12/2013,0,0,0.0,0.0
1,02/12/2013,0,0,0.0,0.0
1,02/12/2013,0,0,0.0,0.0
1,02/12/2013,0,0,0.0,0.0
1,02/12/2013,0,0,0.0,0.0
1,02/12/2013,0,0,0.0,0.0
1,02/12/2013,0,0,0.0,0.0
1,02/12/2013,0,0,0.0,0.0
1,02/12/2013,0,0,0.0,0.0
1,02/12/2013,0,0,0.0,0.0
1,02/12/2013,0,0,0.0,0.0
1,02/12/2013,0,0,0.0,0.0
1,02/12/2013,0,0,0.0,0.0
1,02/12/2013,0,0,0.0,0.0
1,02/12/2013,0,0,0.0,0.0
1,02/12/2013,0,0,0.0,0.0
1,02/12/2013,0,0,0.0,0.0
1,02/12/2013,0,0,0.0,0.0
1,02/12/2013,0,0,0.0,0.0
1,02/12/2013,0,0,0.0,0.0
