# started on Tue Dec 17 21:06:23 2013


 Performance counter stats for 'java -jar 1.jar 500':

    11,126,130,803 cycles:u                  #    0.000 GHz                    
     2,934,740,897 instructions:u            #    0.26  insns per cycle        

       5.432313370 seconds time elapsed

# started on Tue Dec 17 21:06:34 2013


 Performance counter stats for 'java -jar 1.jar 500':

     8,966,811,430 cycles:u                  #    0.000 GHz                    
     2,933,126,478 instructions:u            #    0.33  insns per cycle        

       5.487174830 seconds time elapsed

# started on Tue Dec 17 21:06:45 2013


 Performance counter stats for 'java -jar 1.jar 500':

    11,129,340,878 cycles:u                  #    0.000 GHz                    
     2,938,632,283 instructions:u            #    0.26  insns per cycle        

       5.499009319 seconds time elapsed

# started on Tue Dec 17 21:06:56 2013


 Performance counter stats for 'java -jar 1.jar 500':

    11,141,544,001 cycles:u                  #    0.000 GHz                    
     2,949,820,231 instructions:u            #    0.26  insns per cycle        

       5.486480579 seconds time elapsed

# started on Tue Dec 17 21:07:07 2013


 Performance counter stats for 'java -jar 1.jar 500':

    11,029,421,412 cycles:u                  #    0.000 GHz                    
     2,937,661,252 instructions:u            #    0.27  insns per cycle        

       5.415835269 seconds time elapsed

