254205778
254219512
254316414
254226279
254234304
254239947
254232434
254208338
254307507
254309065
254212325
254208312
254218272
254213307
254217344
254209299
254235363
254198559
254255069
254223934
254228131
254271353
254257494
254222493
254236859
254316808
254312268
254217006
254242527
254209861
