1258396
1266998
1266704
1239094
1219213
1245412
1471290
1236325
1233387
1244059
1259179
1235805
1248773
1268413
1243017
1247874
1270892
1246909
1258880
1235058
1262999
1237534
1268510
1238928
1246643
1251801
1219553
1249899
1208729
1261546
