# started on Tue Dec 17 21:15:26 2013


 Performance counter stats for 'java -jar 4.jar 500':

       990,501,578 cycles:k                  #    0.000 GHz                    
       139,745,932 instructions:k            #    0.14  insns per cycle        

       3.597493073 seconds time elapsed

# started on Tue Dec 17 21:15:34 2013


 Performance counter stats for 'java -jar 4.jar 500':

       978,248,220 cycles:k                  #    0.000 GHz                    
       138,721,092 instructions:k            #    0.14  insns per cycle        

       3.582398717 seconds time elapsed

# started on Tue Dec 17 21:15:41 2013


 Performance counter stats for 'java -jar 4.jar 500':

       994,444,185 cycles:k                  #    0.000 GHz                    
       139,360,888 instructions:k            #    0.14  insns per cycle        

       3.635195835 seconds time elapsed

# started on Tue Dec 17 21:15:48 2013


 Performance counter stats for 'java -jar 4.jar 500':

       972,919,879 cycles:k                  #    0.000 GHz                    
       138,878,416 instructions:k            #    0.14  insns per cycle        

       3.554981511 seconds time elapsed

# started on Tue Dec 17 21:15:55 2013


 Performance counter stats for 'java -jar 4.jar 500':

       956,857,347 cycles:k                  #    0.000 GHz                    
       138,868,632 instructions:k            #    0.15  insns per cycle        

       3.524022628 seconds time elapsed

