1581863774
1535835140
1545308173
1536480062
1558389443
1328866840
1560528543
1555602964
1554398202
1524595680
1537195519
1305478319
1561955186
1555870864
1575677967
1542118596
1524258358
1585622103
1746461818
1546940731
1523681470
1544381731
1559645542
1541387038
1554877733
1557786553
1537725374
1557136802
1536082210
1559088844
