1533149
1537411
1529502
1597715
1571369
1542967
1499935
1511411
1556088
1504568
1479969
1539768
1729178
1532611
1557080
1553178
1506045
1515829
1541747
1551855
1531105
1532918
1550883
1552716
1581045
1559404
1515526
1721997
1556705
1587791
