15.104
15.409
15.569
15.269
15.081
15.381
15.312
15.383
15.258
14.941
15.175
15.125
15.279
15.376
15.134
15.501
15.557
15.277
15.463
15.053
15.702
15.518
15.129
15.591
15.490
15.501
15.535
15.360
15.378
15.266
