38596149
38667212
39091690
38735051
38596736
38319459
38988165
38887312
38756575
38978149
38654417
38930785
39060726
38838138
38972771
38991337
38774762
38905077
39138293
39227492
39079765
38821941
38471049
38609431
38752857
39136335
38878939
38728753
38672260
38211648
