# started on Tue Dec 17 20:53:05 2013


 Performance counter stats for 'java -jar 2.jar 500':

    10,300,316,636 cycles:u                  #    0.000 GHz                    
     2,132,876,869 instructions:u            #    0.21  insns per cycle        

       3.226078379 seconds time elapsed

