12274985
12202439
12289532
12465388
12324640
12317177
12306815
12265059
12378963
12318803
12273091
13097130
12310337
12196562
12390451
12335122
12625064
14472507
12340300
12439063
12288788
12139799
12221060
12482941
12248673
12487083
12220531
4041014
12326441
11170901
