172574955
155828585
180630289
171862104
172854651
171198110
169544040
176151546
173276587
173065361
169521497
167686991
170351991
170262424
181501969
173771520
160946937
183506253
173195349
171402766
171019918
168602422
174863133
169993133
168021200
172008509
156000101
172259661
172258577
157498013
