14.626
15.082
13.818
14.670
15.358
14.714
14.784
14.824
15.056
14.582
15.253
15.336
14.582
14.458
14.830
14.984
13.964
14.605
14.948
14.324
15.298
15.370
14.773
13.798
15.333
15.201
14.791
14.566
15.056
14.725
