361750
351915
354858
363504
355923
350386
358333
346585
358714
361325
339928
349833
356186
353364
367843
357283
359763
354650
335866
121490
362224
350921
352050
342238
346564
340810
350024
366802
355550
354206
