37458929
37431685
37305632
37386629
37106509
37677545
37455701
37419673
37415416
37209851
37580791
37370267
37648199
37633615
37353169
37153656
37476025
36850202
37146839
37707384
37554241
37657863
37555621
37536777
37589013
37806230
37428249
36970629
37099949
37191119
