16.284
15.901
14.649
15.908
16.014
15.301
15.907
15.144
15.570
15.488
15.426
15.519
15.838
16.092
15.969
15.807
15.673
15.320
15.480
15.841
15.433
15.415
16.778
16.045
15.570
15.242
15.820
15.655
15.897
14.880
