31887246
31506662
31834947
31873581
31905838
32013629
31490674
31942360
31856035
32118253
31929902
31584040
31954572
31930802
31904770
32149175
31682381
32107640
32021766
31915525
31824313
31857712
31834151
31645294
31674205
31666967
31562821
32007337
31840901
31444750
