281323
281571
284665
286679
283233
275486
287227
279128
279293
277524
280655
282772
280425
277370
287543
288967
286364
284450
276820
289614
283596
283983
291313
280455
283487
278468
285731
283685
280122
283405
