1,geladeira,180.0,90.0,89.0,1200.0,4,branco
2,geladeira,180.0,90.0,89.0,1200.0,2,prata
3,aspirador,30.0,50.0,60.0,149.99,5,vermelho
4,ar condicionado,50.0,100.0,40.0,2967.0,13,branco
5,TV LCD 42'',80.0,110.0,15.0,2500.0,25,preto
6,Forno Eletrico com Microondas,39.2,52.7,0.48,1688.39,7,prata
7,Lavadora de roupas 1Kg,46.0,32.0,32.9,435.0,1,branco
8,Radio CD MP3,12.2,34.1,23.6,199.99,100,preto
